Midterm 2 W26
…
polar_bears_4 %>% 
  count(year)

## # A tibble: 29 × 2
##    year      n
##    <chr> <int>
##  1 1983      5
##  2 1984     12
##  3 1985     14
##  4 1987     10
##  5 1988     16
##  6 1989     15
##  7 1990      4
##  8 1991     12
##  9 1992     19
## 10 1993      1
## # ℹ 19 more rows
…
